EESchema Schematic File Version 2
LIBS:power
LIBS:device
LIBS:transistors
LIBS:conn
LIBS:linear
LIBS:regul
LIBS:74xx
LIBS:cmos4000
LIBS:adc-dac
LIBS:memory
LIBS:xilinx
LIBS:microcontrollers
LIBS:dsp
LIBS:microchip
LIBS:analog_switches
LIBS:motorola
LIBS:texas
LIBS:intel
LIBS:audio
LIBS:interface
LIBS:digital-audio
LIBS:philips
LIBS:display
LIBS:cypress
LIBS:siliconi
LIBS:opto
LIBS:atmel
LIBS:contrib
LIBS:valves
LIBS:ws2812b
LIBS:nrf51822
LIBS:AnyColorButton-cache
EELAYER 25 0
EELAYER END
$Descr A4 11693 8268
encoding utf-8
Sheet 1 1
Title ""
Date ""
Rev ""
Comp ""
Comment1 ""
Comment2 ""
Comment3 ""
Comment4 ""
$EndDescr
$Comp
L WS2812B LED1
U 1 1 58A4CBBD
P 8500 5000
F 0 "LED1" H 8500 4600 60  0000 C CNN
F 1 "WS2812B" H 8500 5400 60  0000 C CNN
F 2 "WS2812:WS2812B" V 8450 5000 60  0001 C CNN
F 3 "" V 8450 5000 60  0000 C CNN
	1    8500 5000
	1    0    0    -1  
$EndComp
$Comp
L C C1
U 1 1 58A4CD73
P 6300 3750
F 0 "C1" H 6325 3850 50  0000 L CNN
F 1 "0.1u" H 6325 3650 50  0000 L CNN
F 2 "Capacitors_SMD:C_0805" H 6338 3600 50  0001 C CNN
F 3 "" H 6300 3750 50  0000 C CNN
	1    6300 3750
	1    0    0    -1  
$EndComp
$Comp
L GND #PWR01
U 1 1 58A4CDFF
P 6300 4050
F 0 "#PWR01" H 6300 3800 50  0001 C CNN
F 1 "GND" H 6300 3900 50  0000 C CNN
F 2 "" H 6300 4050 50  0000 C CNN
F 3 "" H 6300 4050 50  0000 C CNN
	1    6300 4050
	1    0    0    -1  
$EndComp
$Comp
L R R2
U 1 1 58A54635
P 4700 5000
F 0 "R2" V 4780 5000 50  0000 C CNN
F 1 "10k" V 4700 5000 50  0000 C CNN
F 2 "Resistors_SMD:R_0805" V 4630 5000 50  0001 C CNN
F 3 "" H 4700 5000 50  0000 C CNN
	1    4700 5000
	-1   0    0    -1  
$EndComp
$Comp
L DIL16 P2
U 1 1 58B1D2FD
P 5900 5050
F 0 "P2" H 5900 5500 50  0000 C CNN
F 1 "DIL16" V 5900 5050 50  0000 C CNN
F 2 "Housings_DIP:DIP-16_W7.62mm" H 5900 5050 50  0001 C CNN
F 3 "" H 5900 5050 50  0000 C CNN
	1    5900 5050
	-1   0    0    1   
$EndComp
$Comp
L C C2
U 1 1 591BAAA7
P 7650 5050
F 0 "C2" H 7675 5150 50  0000 L CNN
F 1 "0.1u" H 7675 4950 50  0000 L CNN
F 2 "Capacitors_SMD:C_0805" H 7688 4900 50  0001 C CNN
F 3 "" H 7650 5050 50  0000 C CNN
	1    7650 5050
	1    0    0    -1  
$EndComp
$Comp
L CONN_01X03 J2
U 1 1 591BB195
P 9600 4700
F 0 "J2" H 9600 4900 50  0000 C CNN
F 1 "CONN_LED" V 9700 4700 50  0000 C CNN
F 2 "Pin_Headers:Pin_Header_Straight_1x03_Pitch2.54mm" H 9600 4700 50  0001 C CNN
F 3 "" H 9600 4700 50  0001 C CNN
	1    9600 4700
	1    0    0    1   
$EndComp
$Comp
L GND #PWR02
U 1 1 591CFA92
P 6700 4650
F 0 "#PWR02" H 6700 4400 50  0001 C CNN
F 1 "GND" H 6700 4500 50  0000 C CNN
F 2 "" H 6700 4650 50  0000 C CNN
F 3 "" H 6700 4650 50  0000 C CNN
	1    6700 4650
	1    0    0    -1  
$EndComp
$Comp
L +5V #PWR03
U 1 1 591D0FBD
P 6700 3650
F 0 "#PWR03" H 6700 3500 50  0001 C CNN
F 1 "+5V" H 6700 3790 50  0000 C CNN
F 2 "" H 6700 3650 50  0001 C CNN
F 3 "" H 6700 3650 50  0001 C CNN
	1    6700 3650
	1    0    0    1   
$EndComp
$Comp
L GND #PWR04
U 1 1 591D1176
P 7450 4050
F 0 "#PWR04" H 7450 3800 50  0001 C CNN
F 1 "GND" H 7450 3900 50  0000 C CNN
F 2 "" H 7450 4050 50  0000 C CNN
F 3 "" H 7450 4050 50  0000 C CNN
	1    7450 4050
	1    0    0    -1  
$EndComp
$Comp
L +3V3 #PWR05
U 1 1 591D12CF
P 5500 5450
F 0 "#PWR05" H 5500 5300 50  0001 C CNN
F 1 "+3V3" H 5500 5590 50  0000 C CNN
F 2 "" H 5500 5450 50  0001 C CNN
F 3 "" H 5500 5450 50  0001 C CNN
	1    5500 5450
	-1   0    0    1   
$EndComp
$Comp
L +3V3 #PWR06
U 1 1 591D11FE
P 8450 3400
F 0 "#PWR06" H 8450 3250 50  0001 C CNN
F 1 "+3V3" H 8450 3540 50  0000 C CNN
F 2 "" H 8450 3400 50  0001 C CNN
F 3 "" H 8450 3400 50  0001 C CNN
	1    8450 3400
	1    0    0    -1  
$EndComp
$Comp
L +5V #PWR07
U 1 1 591D1804
P 6300 3450
F 0 "#PWR07" H 6300 3300 50  0001 C CNN
F 1 "+5V" H 6300 3590 50  0000 C CNN
F 2 "" H 6300 3450 50  0001 C CNN
F 3 "" H 6300 3450 50  0001 C CNN
	1    6300 3450
	-1   0    0    -1  
$EndComp
$Comp
L +5V #PWR08
U 1 1 591D18F1
P 4700 6200
F 0 "#PWR08" H 4700 6050 50  0001 C CNN
F 1 "+5V" H 4700 6340 50  0000 C CNN
F 2 "" H 4700 6200 50  0001 C CNN
F 3 "" H 4700 6200 50  0001 C CNN
	1    4700 6200
	1    0    0    1   
$EndComp
NoConn ~ 5550 4900
NoConn ~ 5550 5000
NoConn ~ 5550 5200
NoConn ~ 6250 4800
NoConn ~ 6250 4900
NoConn ~ 6250 5000
NoConn ~ 8000 5200
NoConn ~ 5550 4700
$Comp
L BSS138 Q1
U 1 1 59BD9552
P 5050 5750
F 0 "Q1" H 5250 5825 50  0000 L CNN
F 1 "BSS138" H 5250 5750 50  0000 L CNN
F 2 "TO_SOT_Packages_SMD:SOT-23" H 5250 5675 50  0001 L CIN
F 3 "" H 5050 5750 50  0001 L CNN
	1    5050 5750
	0    -1   1    0   
$EndComp
Text GLabel 6250 5300 2    60   Input ~ 0
TX
Text GLabel 6250 5400 2    60   Input ~ 0
RX
$Comp
L +3V3 #PWR09
U 1 1 59BD9D12
P 4700 5200
F 0 "#PWR09" H 4700 5050 50  0001 C CNN
F 1 "+3V3" H 4700 5340 50  0000 C CNN
F 2 "" H 4700 5200 50  0001 C CNN
F 3 "" H 4700 5200 50  0001 C CNN
	1    4700 5200
	-1   0    0    1   
$EndComp
NoConn ~ 5550 5300
$Comp
L R_Small 10k1
U 1 1 59BDAB47
P 4700 6000
F 0 "10k1" H 4730 6020 50  0000 L CNN
F 1 "R_Small" H 4730 5960 50  0000 L CNN
F 2 "Resistors_SMD:R_0805_HandSoldering" H 4700 6000 50  0001 C CNN
F 3 "" H 4700 6000 50  0001 C CNN
	1    4700 6000
	-1   0    0    1   
$EndComp
$Comp
L R_Small 10k2
U 1 1 59BDAF2D
P 5350 5550
F 0 "10k2" H 5380 5570 50  0000 L CNN
F 1 "R_Small" H 5380 5510 50  0000 L CNN
F 2 "Resistors_SMD:R_0805_HandSoldering" H 5350 5550 50  0001 C CNN
F 3 "" H 5350 5550 50  0001 C CNN
	1    5350 5550
	-1   0    0    1   
$EndComp
$Comp
L GND #PWR010
U 1 1 591D19D3
P 9050 5350
F 0 "#PWR010" H 9050 5100 50  0001 C CNN
F 1 "GND" H 9050 5200 50  0000 C CNN
F 2 "" H 9050 5350 50  0000 C CNN
F 3 "" H 9050 5350 50  0000 C CNN
	1    9050 5350
	1    0    0    -1  
$EndComp
Text GLabel 4350 5850 0    60   Input ~ 0
DIN
Text GLabel 3450 5400 2    60   Input ~ 0
DIN
$Comp
L +5V #PWR011
U 1 1 59C0CD6F
P 3650 5300
F 0 "#PWR011" H 3650 5150 50  0001 C CNN
F 1 "+5V" H 3650 5440 50  0000 C CNN
F 2 "" H 3650 5300 50  0001 C CNN
F 3 "" H 3650 5300 50  0001 C CNN
	1    3650 5300
	0    1    -1   0   
$EndComp
$Comp
L GND #PWR012
U 1 1 59C0CF41
P 3450 5200
F 0 "#PWR012" H 3450 4950 50  0001 C CNN
F 1 "GND" H 3450 5050 50  0000 C CNN
F 2 "" H 3450 5200 50  0000 C CNN
F 3 "" H 3450 5200 50  0000 C CNN
	1    3450 5200
	0    -1   -1   0   
$EndComp
$Comp
L GND #PWR013
U 1 1 59C0D0D3
P 3450 4950
F 0 "#PWR013" H 3450 4700 50  0001 C CNN
F 1 "GND" H 3450 4800 50  0000 C CNN
F 2 "" H 3450 4950 50  0000 C CNN
F 3 "" H 3450 4950 50  0000 C CNN
	1    3450 4950
	0    -1   -1   0   
$EndComp
$Comp
L +5V #PWR014
U 1 1 59C0D0FF
P 3650 5050
F 0 "#PWR014" H 3650 4900 50  0001 C CNN
F 1 "+5V" H 3650 5190 50  0000 C CNN
F 2 "" H 3650 5050 50  0001 C CNN
F 3 "" H 3650 5050 50  0001 C CNN
	1    3650 5050
	0    1    -1   0   
$EndComp
Text GLabel 5050 4800 2    60   Input ~ 0
GPIO4
Text GLabel 6450 5100 2    60   Input ~ 0
GPIO4
NoConn ~ 5550 4800
$Comp
L LD1117S12CTR U1
U 1 1 59C332AD
P 7450 3550
F 0 "U1" H 7450 3800 50  0000 C CNN
F 1 "LD1117S12CTR" H 7450 3750 50  0000 C CNN
F 2 "TO_SOT_Packages_SMD:SOT-223" H 7450 3650 50  0001 C CNN
F 3 "" H 7450 3550 50  0001 C CNN
	1    7450 3550
	1    0    0    -1  
$EndComp
Wire Wire Line
	9050 5350 9050 5200
Connection ~ 5350 5850
Wire Wire Line
	5350 5650 5350 6400
Connection ~ 5350 5400
Wire Wire Line
	5350 5400 5350 5450
Connection ~ 5500 5400
Wire Wire Line
	5100 5550 5100 5400
Wire Wire Line
	4350 5850 4850 5850
Wire Wire Line
	5100 5400 5550 5400
Wire Wire Line
	5500 5450 5500 5400
Wire Wire Line
	4700 5200 4700 5150
Wire Wire Line
	9000 4800 9400 4800
Wire Wire Line
	3300 4700 5200 4700
Connection ~ 7450 3900
Connection ~ 6300 3450
Wire Wire Line
	4700 6200 4700 6100
Wire Wire Line
	8450 3500 8450 3400
Wire Wire Line
	7850 3500 8450 3500
Wire Wire Line
	7450 3800 7450 4050
Wire Wire Line
	6700 3500 7050 3500
Wire Wire Line
	6700 3500 6700 3650
Wire Wire Line
	6400 4700 6250 4700
Wire Wire Line
	6700 4450 6700 4650
Connection ~ 9050 5200
Wire Wire Line
	9850 4350 9850 5200
Wire Wire Line
	9400 4350 9850 4350
Wire Wire Line
	9400 4600 9400 4350
Wire Wire Line
	9200 4700 9400 4700
Wire Wire Line
	9200 4550 9200 4700
Wire Wire Line
	8000 4550 9200 4550
Wire Wire Line
	7650 5350 9050 5350
Wire Wire Line
	7650 5200 7650 5350
Wire Wire Line
	7650 4800 8000 4800
Wire Wire Line
	7650 4900 7650 4800
Wire Wire Line
	6300 3900 6300 4050
Wire Wire Line
	6300 3600 6300 3450
Wire Wire Line
	8000 4800 8000 4550
Wire Wire Line
	9850 5200 9000 5200
Wire Wire Line
	6400 4450 6400 4700
Connection ~ 9050 5350
Wire Wire Line
	4700 5850 4700 5900
Connection ~ 4700 5850
Wire Wire Line
	5200 4700 5200 4450
Wire Wire Line
	5200 4450 6700 4450
Connection ~ 6400 4450
Wire Wire Line
	3450 5400 3300 5400
Wire Wire Line
	3650 5300 3300 5300
Wire Wire Line
	3450 5200 3300 5200
Wire Wire Line
	3650 5050 3300 5050
Wire Wire Line
	3300 4950 3450 4950
Wire Wire Line
	4700 4850 4700 4800
Connection ~ 4700 4800
Wire Wire Line
	5050 4800 3300 4800
Wire Wire Line
	6450 5100 6250 5100
Connection ~ 8350 3500
Wire Wire Line
	7450 4000 7450 3900
Wire Wire Line
	5350 6400 4050 6400
Wire Wire Line
	4050 6400 4050 5400
Wire Wire Line
	4050 5400 5000 5400
Wire Wire Line
	5000 5400 5000 5100
Wire Wire Line
	5000 5100 5550 5100
$Comp
L CONN_01X03 CONN_LED1
U 1 1 59C33F74
P 3100 5300
F 0 "CONN_LED1" H 3100 5500 50  0000 C CNN
F 1 "CONN_01X03" V 3200 5300 50  0000 C CNN
F 2 "Pin_Headers:Pin_Header_Straight_1x03_Pitch2.54mm" H 3100 5300 50  0001 C CNN
F 3 "" H 3100 5300 50  0001 C CNN
	1    3100 5300
	-1   0    0    1   
$EndComp
$Comp
L CONN_01X02 PWR1
U 1 1 59C33FDB
P 3100 5000
F 0 "PWR1" H 3100 5150 50  0000 C CNN
F 1 "CONN_01X02" V 3200 5000 50  0000 C CNN
F 2 "Pin_Headers:Pin_Header_Straight_1x02_Pitch2.54mm" H 3100 5000 50  0001 C CNN
F 3 "" H 3100 5000 50  0001 C CNN
	1    3100 5000
	-1   0    0    1   
$EndComp
$Comp
L CONN_01X02 BTN1
U 1 1 59C34032
P 3100 4750
F 0 "BTN1" H 3100 4900 50  0000 C CNN
F 1 "CONN_01X02" V 3200 4750 50  0000 C CNN
F 2 "Pin_Headers:Pin_Header_Straight_1x02_Pitch2.54mm" H 3100 4750 50  0001 C CNN
F 3 "" H 3100 4750 50  0001 C CNN
	1    3100 4750
	-1   0    0    1   
$EndComp
$EndSCHEMATC
