EESchema Schematic File Version 3
LIBS:AnyColorButton-rescue
LIBS:power
LIBS:device
LIBS:transistors
LIBS:conn
LIBS:linear
LIBS:regul
LIBS:74xx
LIBS:cmos4000
LIBS:adc-dac
LIBS:memory
LIBS:xilinx
LIBS:microcontrollers
LIBS:dsp
LIBS:microchip
LIBS:analog_switches
LIBS:motorola
LIBS:texas
LIBS:intel
LIBS:audio
LIBS:interface
LIBS:digital-audio
LIBS:philips
LIBS:display
LIBS:cypress
LIBS:siliconi
LIBS:opto
LIBS:atmel
LIBS:contrib
LIBS:valves
LIBS:ws2812b
LIBS:nrf51822
LIBS:lipocharger
LIBS:symbols
LIBS:AnyColorButton-cache
EELAYER 26 0
EELAYER END
$Descr A4 11693 8268
encoding utf-8
Sheet 1 1
Title ""
Date ""
Rev ""
Comp ""
Comment1 ""
Comment2 ""
Comment3 ""
Comment4 ""
$EndDescr
$Comp
L WS2812B LED1
U 1 1 58A4CBBD
P 7950 2250
F 0 "LED1" H 7950 1850 60  0000 C CNN
F 1 "WS2812B" H 7950 2650 60  0000 C CNN
F 2 "WS2812:WS2812B" V 7900 2250 60  0001 C CNN
F 3 "" V 7900 2250 60  0000 C CNN
	1    7950 2250
	1    0    0    -1  
$EndComp
$Comp
L C C1
U 1 1 58A4CD73
P 5950 3100
F 0 "C1" H 5975 3200 50  0000 L CNN
F 1 "0.1u" H 5975 3000 50  0000 L CNN
F 2 "Capacitors_SMD:C_0805" H 5988 2950 50  0001 C CNN
F 3 "" H 5950 3100 50  0000 C CNN
	1    5950 3100
	1    0    0    -1  
$EndComp
$Comp
L GND #PWR01
U 1 1 58A4CDFF
P 5950 3400
F 0 "#PWR01" H 5950 3150 50  0001 C CNN
F 1 "GND" H 5950 3250 50  0000 C CNN
F 2 "" H 5950 3400 50  0000 C CNN
F 3 "" H 5950 3400 50  0000 C CNN
	1    5950 3400
	1    0    0    -1  
$EndComp
$Comp
L DIL16 P2
U 1 1 58B1D2FD
P 4400 6000
F 0 "P2" H 4400 6450 50  0000 C CNN
F 1 "DIL16" V 4400 6000 50  0000 C CNN
F 2 "Housings_DIP:DIP-16_W7.62mm" H 4400 6000 50  0001 C CNN
F 3 "" H 4400 6000 50  0000 C CNN
	1    4400 6000
	-1   0    0    1   
$EndComp
$Comp
L C C2
U 1 1 591BAAA7
P 7100 2300
F 0 "C2" H 7125 2400 50  0000 L CNN
F 1 "0.1u" H 7125 2200 50  0000 L CNN
F 2 "Capacitors_SMD:C_0805" H 7138 2150 50  0001 C CNN
F 3 "" H 7100 2300 50  0000 C CNN
	1    7100 2300
	1    0    0    -1  
$EndComp
$Comp
L +5V #PWR03
U 1 1 591D0FBD
P 2850 2050
F 0 "#PWR03" H 2850 1900 50  0001 C CNN
F 1 "+5V" H 2850 2190 50  0000 C CNN
F 2 "" H 2850 2050 50  0001 C CNN
F 3 "" H 2850 2050 50  0001 C CNN
	1    2850 2050
	1    0    0    1   
$EndComp
$Comp
L GND #PWR04
U 1 1 591D1176
P 3600 2450
F 0 "#PWR04" H 3600 2200 50  0001 C CNN
F 1 "GND" H 3600 2300 50  0000 C CNN
F 2 "" H 3600 2450 50  0000 C CNN
F 3 "" H 3600 2450 50  0000 C CNN
	1    3600 2450
	1    0    0    -1  
$EndComp
$Comp
L +3V3 #PWR06
U 1 1 591D11FE
P 4600 1800
F 0 "#PWR06" H 4600 1650 50  0001 C CNN
F 1 "+3V3" H 4600 1940 50  0000 C CNN
F 2 "" H 4600 1800 50  0001 C CNN
F 3 "" H 4600 1800 50  0001 C CNN
	1    4600 1800
	1    0    0    -1  
$EndComp
$Comp
L +5V #PWR07
U 1 1 591D1804
P 5950 2800
F 0 "#PWR07" H 5950 2650 50  0001 C CNN
F 1 "+5V" H 5950 2940 50  0000 C CNN
F 2 "" H 5950 2800 50  0001 C CNN
F 3 "" H 5950 2800 50  0001 C CNN
	1    5950 2800
	-1   0    0    -1  
$EndComp
NoConn ~ 4050 5850
NoConn ~ 4050 5950
NoConn ~ 4050 6150
NoConn ~ 4750 5750
NoConn ~ 4750 5850
NoConn ~ 7450 2450
Text GLabel 4750 6250 2    60   Input ~ 0
TX
Text GLabel 4750 6350 2    60   Input ~ 0
RX
NoConn ~ 4050 6250
$Comp
L GND #PWR010
U 1 1 591D19D3
P 8500 2600
F 0 "#PWR010" H 8500 2350 50  0001 C CNN
F 1 "GND" H 8500 2450 50  0000 C CNN
F 2 "" H 8500 2600 50  0000 C CNN
F 3 "" H 8500 2600 50  0000 C CNN
	1    8500 2600
	1    0    0    -1  
$EndComp
$Comp
L NCP1117DT33G U1
U 1 1 59C4BF1E
P 3600 1900
F 0 "U1" H 3600 2125 50  0000 C CNN
F 1 "AP2120N-3.3TRG1" H 3600 2050 50  0000 C CNN
F 2 "TO_SOT_Packages_SMD:SOT-23" H 3650 1650 50  0001 L CNN
F 3 "" H 3600 1900 50  0001 C CNN
	1    3600 1900
	1    0    0    -1  
$EndComp
$Comp
L GND #PWR014
U 1 1 59C8A04A
P 5450 2500
F 0 "#PWR014" H 5450 2250 50  0001 C CNN
F 1 "GND" H 5450 2350 50  0000 C CNN
F 2 "" H 5450 2500 50  0000 C CNN
F 3 "" H 5450 2500 50  0000 C CNN
	1    5450 2500
	1    0    0    -1  
$EndComp
NoConn ~ 5350 2300
$Comp
L GND #PWR015
U 1 1 59C8A0E0
P 4950 2600
F 0 "#PWR015" H 4950 2350 50  0001 C CNN
F 1 "GND" H 4950 2450 50  0000 C CNN
F 2 "" H 4950 2600 50  0000 C CNN
F 3 "" H 4950 2600 50  0000 C CNN
	1    4950 2600
	1    0    0    -1  
$EndComp
$Comp
L +5V #PWR016
U 1 1 59C8A165
P 5050 2450
F 0 "#PWR016" H 5050 2300 50  0001 C CNN
F 1 "+5V" H 5050 2590 50  0000 C CNN
F 2 "" H 5050 2450 50  0001 C CNN
F 3 "" H 5050 2450 50  0001 C CNN
	1    5050 2450
	1    0    0    1   
$EndComp
Text Notes 2700 1550 0    60   ~ 0
POWER PILLAR
$Comp
L LiPoCharger U2
U 1 1 59D0A7E6
P 5200 1900
F 0 "U2" H 5528 1847 60  0000 L CNN
F 1 "LiPoCharger" H 5528 1741 60  0000 L CNN
F 2 "AnyColorButton:LiPoCharger" H 5200 1900 60  0001 C CNN
F 3 "" H 5200 1900 60  0001 C CNN
	1    5200 1900
	1    0    0    -1  
$EndComp
$Comp
L SN74LVC1T45_DCK_6 U3
U 1 1 59DB1179
P 5150 3100
F 0 "U3" H 5150 3000 60  0000 C CNN
F 1 "SN74LVC1T45_DCK_6" H 5150 3300 60  0000 C CNN
F 2 "footprints:SN74LVC1T45DCKR" H 6350 3340 60  0001 C CNN
F 3 "" H 5150 3100 60  0000 C CNN
	1    5150 3100
	1    0    0    -1  
$EndComp
$Comp
L BSS138 Q1
U 1 1 59DC4FDF
P 3350 2850
F 0 "Q1" V 3693 2850 50  0000 C CNN
F 1 "BSS138" V 3602 2850 50  0000 C CNN
F 2 "TO_SOT_Packages_SMD:SOT-23_Handsoldering" H 3550 2775 50  0001 L CIN
F 3 "" H 3350 2850 50  0001 L CNN
	1    3350 2850
	0    -1   -1   0   
$EndComp
Text Notes 6850 1800 0    60   ~ 0
LED BOARD
$Comp
L CONN_01X02 J4
U 1 1 59DF15B7
P 4950 4900
F 0 "J4" V 4950 4700 50  0000 L CNN
F 1 "B2P" V 5100 4850 50  0000 L CNN
F 2 "Connect:GS2" H 4950 4900 50  0001 C CNN
F 3 "" H 4950 4900 50  0001 C CNN
	1    4950 4900
	0    -1   -1   0   
$EndComp
$Comp
L CONN_01X02 J2
U 1 1 59DF1982
P 3650 4350
F 0 "J2" H 3569 4075 50  0000 C CNN
F 1 "P2B" H 3569 4166 50  0000 C CNN
F 2 "Connect:GS2" H 3650 4350 50  0001 C CNN
F 3 "" H 3650 4350 50  0001 C CNN
	1    3650 4350
	0    1    1    0   
$EndComp
Text GLabel 6400 2150 3    60   Input ~ 0
LEV-B
Text GLabel 5650 3300 3    60   Input ~ 0
LEV-B
$Comp
L CONN_01X02 J7
U 1 1 59DFB8A4
P 3800 4900
F 0 "J7" V 3800 5050 50  0000 L CNN
F 1 "B2D" V 3950 4850 50  0000 L CNN
F 2 "Connect:GS2" H 3800 4900 50  0001 C CNN
F 3 "" H 3800 4900 50  0001 C CNN
	1    3800 4900
	0    -1   -1   0   
$EndComp
Text GLabel 4650 3300 3    60   Input ~ 0
LEV-A
Text GLabel 3700 4150 1    60   Input ~ 0
LEV-A
$Comp
L Conn_01x01 J3
U 1 1 59DFD6DF
P 3800 2500
F 0 "J3" V 3673 2580 50  0000 L CNN
F 1 "GND" V 3764 2580 50  0000 L CNN
F 2 "AnyColorButton:GS1" H 3800 2500 50  0001 C CNN
F 3 "" H 3800 2500 50  0001 C CNN
	1    3800 2500
	0    1    1    0   
$EndComp
$Comp
L Conn_01x01 J6
U 1 1 59DFE5D4
P 4600 2100
F 0 "J6" V 4473 2180 50  0000 L CNN
F 1 "+3V3" V 4564 2180 50  0000 L CNN
F 2 "AnyColorButton:GS1" H 4600 2100 50  0001 C CNN
F 3 "" H 4600 2100 50  0001 C CNN
	1    4600 2100
	0    1    1    0   
$EndComp
$Comp
L Conn_01x01 J1
U 1 1 59DFE848
P 3550 4900
F 0 "J1" V 3550 4850 50  0000 R CNN
F 1 "+3V3" V 3550 5150 50  0000 R CNN
F 2 "AnyColorButton:GS1" H 3550 4900 50  0001 C CNN
F 3 "" H 3550 4900 50  0001 C CNN
	1    3550 4900
	0    -1   -1   0   
$EndComp
$Comp
L Conn_01x01 J5
U 1 1 59DFE8AE
P 4100 4900
F 0 "J5" V 4100 4800 50  0000 R CNN
F 1 "GND" V 4000 4850 50  0000 R CNN
F 2 "AnyColorButton:GS1" H 4100 4900 50  0001 C CNN
F 3 "" H 4100 4900 50  0001 C CNN
	1    4100 4900
	0    -1   -1   0   
$EndComp
$Comp
L Conn_01x03 J8
U 1 1 59E02839
P 6300 1650
F 0 "J8" V 6266 1462 50  0000 R CNN
F 1 "P2L" V 6300 1950 50  0000 R CNN
F 2 "Connect:GS3" H 6300 1650 50  0001 C CNN
F 3 "" H 6300 1650 50  0001 C CNN
	1    6300 1650
	0    -1   -1   0   
$EndComp
Text Notes 6200 1550 1    60   ~ 0
GND
Text Notes 6300 1550 1    60   ~ 0
LED_PWR
Text Notes 6400 1550 1    60   ~ 0
DIN
$Comp
L Conn_01x03 J9
U 1 1 59E032E6
P 7250 2950
F 0 "J9" V 7250 3200 50  0000 R CNN
F 1 "L2P" V 7250 2800 50  0000 R CNN
F 2 "Connect:GS3" H 7250 2950 50  0001 C CNN
F 3 "" H 7250 2950 50  0001 C CNN
	1    7250 2950
	0    1    1    0   
$EndComp
Text Notes 7410 3050 3    60   ~ 0
GND
Text Notes 7310 3050 3    60   ~ 0
LED_PWR
Text Notes 7210 3050 3    60   ~ 0
DIN
$Comp
L CONN_01X02 J12
U 1 1 59E04FC3
P 8900 2950
F 0 "J12" V 8900 2750 50  0000 L CNN
F 1 "L2D" V 9050 2900 50  0000 L CNN
F 2 "Connect:GS2" H 8900 2950 50  0001 C CNN
F 3 "" H 8900 2950 50  0001 C CNN
	1    8900 2950
	0    1    1    0   
$EndComp
$Comp
L CONN_01X02 J10
U 1 1 59E06337
P 7800 4100
F 0 "J10" V 7800 3900 50  0000 L CNN
F 1 "D2L" V 7950 4050 50  0000 L CNN
F 2 "Connect:GS2" H 7800 4100 50  0001 C CNN
F 3 "" H 7800 4100 50  0001 C CNN
	1    7800 4100
	0    1    -1   0   
$EndComp
$Comp
L CONN_01X02 J11
U 1 1 59E0633E
P 7800 4500
F 0 "J11" V 7800 4300 50  0000 L CNN
F 1 "D2B" V 7950 4400 50  0000 L CNN
F 2 "Connect:GS2" H 7800 4500 50  0001 C CNN
F 3 "" H 7800 4500 50  0001 C CNN
	1    7800 4500
	0    1    1    0   
$EndComp
Text Notes 7600 3900 0    60   ~ 0
DATA PILLAR
$Comp
L R R1
U 1 1 59E06DF4
P 4800 6500
F 0 "R1" V 4900 6500 50  0000 C CNN
F 1 "10k" V 4800 6500 50  0000 C CNN
F 2 "Resistors_SMD:R_0805_HandSoldering" V 4730 6500 50  0001 C CNN
F 3 "" H 4800 6500 50  0001 C CNN
	1    4800 6500
	0    1    1    0   
$EndComp
Wire Wire Line
	8500 2600 8500 2450
Wire Wire Line
	4600 1900 4600 1800
Wire Wire Line
	2850 1900 2850 2050
Wire Wire Line
	7100 2600 8500 2600
Wire Wire Line
	7100 2450 7100 2600
Wire Wire Line
	6950 2050 7450 2050
Wire Wire Line
	5950 3250 5950 3400
Wire Wire Line
	5950 2950 5950 2800
Connection ~ 8500 2600
Wire Wire Line
	3600 2450 3600 2200
Connection ~ 4500 1900
Wire Wire Line
	3900 1900 4600 1900
Wire Wire Line
	2850 1900 3300 1900
Wire Notes Line
	6600 1550 2650 1550
Wire Notes Line
	2650 1550 2650 4550
Wire Wire Line
	5050 2450 5050 2300
Wire Wire Line
	4950 2600 4950 2300
Wire Wire Line
	5450 2500 5450 2300
Wire Wire Line
	8500 2450 8450 2450
Wire Wire Line
	3000 1900 3000 2750
Wire Wire Line
	3000 2750 3150 2750
Connection ~ 3000 1900
Wire Wire Line
	3600 3650 3600 4150
Wire Wire Line
	3350 3050 3350 3650
Wire Wire Line
	3550 2750 4350 2750
Wire Wire Line
	5550 3000 5800 3000
Wire Wire Line
	5800 2900 5800 3100
Wire Wire Line
	5800 2900 5950 2900
Connection ~ 5950 2900
Wire Wire Line
	4750 3000 4500 3000
Wire Wire Line
	4750 3100 4450 3100
Wire Wire Line
	4450 2250 3600 2250
Connection ~ 3600 2250
Wire Wire Line
	4500 3000 4500 1900
Wire Wire Line
	4450 3100 4450 2250
Wire Notes Line
	2650 4550 6600 4550
Wire Notes Line
	6800 1800 6800 3050
Wire Notes Line
	9200 1800 9200 3050
Wire Notes Line
	6800 1800 9200 1800
Wire Wire Line
	7100 2050 7100 2150
Wire Wire Line
	5650 3300 5650 3200
Wire Wire Line
	5650 3200 5550 3200
Wire Wire Line
	4750 3200 4650 3200
Wire Wire Line
	5800 3100 5550 3100
Connection ~ 5800 3000
Wire Notes Line
	3300 6650 5100 6650
Wire Notes Line
	5100 6650 5100 4800
Wire Notes Line
	5100 4800 3300 4800
Wire Notes Line
	3300 4800 3300 6650
Wire Wire Line
	3850 5650 4050 5650
Wire Wire Line
	3850 5100 3850 5650
Wire Wire Line
	3750 5100 3750 5750
Wire Wire Line
	3750 5750 4050 5750
Wire Wire Line
	4900 5100 4900 5950
Wire Wire Line
	4900 5950 4750 5950
Wire Wire Line
	5000 5100 5000 6500
Wire Wire Line
	5000 6050 4750 6050
Wire Wire Line
	3350 3650 3600 3650
Wire Wire Line
	4650 3200 4650 3300
Wire Wire Line
	3550 6350 4050 6350
Wire Wire Line
	3550 5100 3550 6500
Wire Wire Line
	3800 2300 3800 2250
Connection ~ 3800 2250
Wire Wire Line
	4750 5650 4800 5650
Wire Wire Line
	4800 5650 4800 5300
Wire Wire Line
	4800 5300 4100 5300
Wire Wire Line
	4100 5300 4100 5100
Wire Wire Line
	4350 2750 4350 4100
Wire Wire Line
	4350 4100 6300 4100
Wire Wire Line
	6400 1850 6400 2150
Wire Wire Line
	6300 4100 6300 1850
Wire Wire Line
	6200 3300 5950 3300
Wire Wire Line
	6200 1850 6200 3300
Connection ~ 5950 3300
Wire Notes Line
	6600 4550 6600 1550
Wire Wire Line
	7350 2750 7350 2600
Connection ~ 7350 2600
Wire Wire Line
	7250 2750 7250 2650
Wire Wire Line
	7250 2650 6950 2650
Wire Wire Line
	6950 2650 6950 2050
Connection ~ 7100 2050
Wire Wire Line
	7150 2750 6900 2750
Wire Wire Line
	6900 2750 6900 1900
Wire Wire Line
	6900 1900 8550 1900
Wire Wire Line
	8550 1900 8550 2050
Wire Wire Line
	8550 2050 8450 2050
Wire Wire Line
	8850 2150 8850 2750
Wire Wire Line
	8950 2150 8950 2750
Wire Notes Line
	9200 3050 6800 3050
Wire Notes Line
	7950 4600 7650 4600
Wire Notes Line
	7650 4600 7650 4000
Wire Notes Line
	7650 4000 7950 4000
Wire Notes Line
	7950 4000 7950 4600
Wire Wire Line
	3550 6500 4650 6500
Connection ~ 3550 6350
Wire Wire Line
	5000 6500 4950 6500
Connection ~ 5000 6050
$Comp
L Conn_01x01 J14
U 1 1 59E087D8
P 9000 1900
F 0 "J14" V 8966 1812 50  0000 R CNN
F 1 "Conn_01x01" V 8875 1812 50  0000 R CNN
F 2 "AnyColorButton:Keystone_1020-1" H 9000 1900 50  0001 C CNN
F 3 "" H 9000 1900 50  0001 C CNN
	1    9000 1900
	0    -1   -1   0   
$EndComp
$Comp
L Conn_01x01 J13
U 1 1 59E0890D
P 8800 1900
F 0 "J13" V 8800 2050 50  0000 R CNN
F 1 "Conn_01x01" V 8950 2200 50  0000 R CNN
F 2 "AnyColorButton:Keystone_1020-1" H 8800 1900 50  0001 C CNN
F 3 "" H 8800 1900 50  0001 C CNN
	1    8800 1900
	0    -1   -1   0   
$EndComp
Wire Wire Line
	8800 2100 8800 2150
Wire Wire Line
	8800 2150 8850 2150
Wire Wire Line
	8950 2150 9000 2150
Wire Wire Line
	9000 2150 9000 2100
Text Label 4400 5300 0    60   ~ 0
GND
$EndSCHEMATC
